"Id","Name","DeveloperName","NamespacePrefix","Description","BusinessProcessId","SobjectType","IsActive","IsPersonType","CreatedById","CreatedDate","LastModifiedById","LastModifiedDate","SystemModstamp"
"012800000002DEaAAM","Meeting Brief_vod","MeetingBrief_vod",NA,"Meeting Brief",NA,"Call2_Discussion_vod__c",1,0,"00580000001luliAAA","2008-10-27 23:23:13","005A0000004utaPIAQ","2017-10-17 06:02:21","2017-10-17 06:02:21"
"012A00000019mJvIAI","Activity_Execution_vod","Activity_Execution_vod",NA,"Used for tracking User Suggestion execution",NA,"Suggestion_Feedback_vod__c",1,0,"00580000001luliAAA","2015-12-05 03:12:18","00580000001luliAAA","2015-12-05 03:12:18","2015-12-05 03:12:18"
"012A00000019mJwIAI","Dismiss_vod","Dismiss_vod",NA,"Used for tracking User Suggestion dismissal",NA,"Suggestion_Feedback_vod__c",1,0,"00580000001luliAAA","2015-12-05 03:12:18","00580000001luliAAA","2015-12-05 03:12:18","2015-12-05 03:12:18"
"012A00000019mJxIAI","Mark_As_Complete_vod","Mark_As_Complete_vod",NA,"Used for tracking User Suggestion completion outside of execution workflow",NA,"Suggestion_Feedback_vod__c",1,0,"00580000001luliAAA","2015-12-05 03:12:18","00580000001luliAAA","2015-12-05 03:12:18","2015-12-05 03:12:18"
