"Id","OwnerId","IsDeleted","Name","RecordTypeId","CreatedDate","CreatedById","LastModifiedDate","LastModifiedById","SystemModstamp","MayEdit","IsLocked","ConnectionReceivedId","ConnectionSentId","Account_Priority_Score_vod__c","Account_vod__c","Action_Count_vod__c","Actioned_vod__c","Call_Objective_CLM_ID_vod__c","Call_Objective_From_Date_vod__c","Call_Objective_On_By_Default_vod__c","Call_Objective_Record_Type_vod__c","Call_Objective_To_Date_vod__c","Dismiss_Count_vod__c","Dismissed_vod__c","Display_Dismiss_vod__c","Display_Mark_As_Complete_vod__c","Display_Score_vod__c","Email_Template_ID_vod__c","Email_Template_Vault_ID_vod__c","Email_Template_vod__c","Expiration_Date_vod__c","Mark_Complete_Count_vod__c","Marked_As_Complete_vod__c","No_Homepage_vod__c","Planned_Call_Date_vod__c","Posted_Date_vod__c","Priority_vod__c","Reason_vod__c","Record_Type_Name_vod__c","Suggestion_External_Id_vod__c","Suppress_Reason_vod__c","Title_vod__c"
"a5lA00000009FIVIA2","00580000002EZNTAA4",0,"SI-032323492","012A00000019mK4IAI","2016-08-17 11:35:24","005A00000073NkHIAU","2016-08-18 11:41:48","005A00000073NkHIAU","2016-08-18 11:41:48",1,0,NA,NA,999,"001A0000002qANOIA2",NA,NA,NA,"2016-08-16",1,"Insight_vod","2021-08-15",NA,NA,0,0,0,NA,NA,0,"2016-08-17",NA,NA,1,NA,NA,"Normal_vod",NA,"Insight_vod","AKTINS~1505~5490~1~-1971335749",0,"SUGGESTED ACTION: 2016-08-17 Send LYR"
"a5lA00000009FIwIAM","00580000002EZNTAA4",0,"SI-032323519","012A00000019mK4IAI","2016-08-17 11:35:24","005A00000073NkHIAU","2016-08-20 13:21:17","005A00000073NkHIAU","2016-08-20 13:21:17",1,0,NA,NA,999,"001A0000002oPFxIAM",NA,NA,NA,"2016-08-16",1,"Insight_vod","2021-08-15",NA,NA,0,0,0,NA,NA,0,"2016-08-19",NA,NA,1,NA,NA,"Normal_vod",NA,"Insight_vod","AKTINS~1505~3357~1~1262849231",0,"SUGGESTED ACTION: 2016-08-24 Detail LYR Lyrica FM August 2015 POA v1.0"
"a5lA0000000APWgIAO","00580000002EZNTAA4",0,"SI-032601139","012A00000019mK3IAI","2016-08-18 11:42:46","005A00000073NkHIAU","2016-08-20 13:21:27","005A00000073NkHIAU","2016-08-20 13:21:27",1,0,NA,NA,997,"001A0000002qANOIA2",0,NA,NA,"2016-08-17",1,"Suggestion_vod","2016-08-22",0,NA,1,1,0,NA,NA,0,"2016-08-19",1,1,0,NA,NA,"Normal_vod","<ul><li>Follow up on recent completed Lyrica detail on 2016-08-15.  Utilize RTE and show resources available on LYRICA HCP site, Virtual Programs, PfizerPro</li><li>Lyrica FM Priority so focus on FM</li></ul>","Email_vod","AKTSUG~a5490~cp7:VVVVVV~r1505~S~s:p1003~X42773",0,"SUGGESTED ACTION: Send LYR"
"a5lA0000001jWN0IAM","00580000002EZNTAA4",0,"SI-018613712","012A00000019mK2IAI","2016-06-30 20:41:00","005A00000073NkHIAU","2016-07-01 11:47:55","005A00000073NkHIAU","2016-07-01 11:47:55",1,0,NA,NA,995,"001A0000002oPFxIAM",NA,NA,NA,"2016-06-29",1,"Suggestion_vod","2016-07-04",NA,NA,1,1,0,NA,NA,0,"2016-06-30",NA,NA,0,NA,NA,"Normal_vod","<ul><li>9d since last Visit (rep: Nancy Woodmansee), 7/9 LYRICA details made</li><li>Lyrica FM Priority so focus on FM</li></ul>","Call_vod","AKTSUG~a3357~cp6:VVVVVVV~r1505~V~1:d:p1003:mt1:m1214",0,"SUGGESTED ACTION: Detail LYR Lyrica FM August 2015 POA v1.0"
"a5lA0000001tMEbIAM","00580000002EZNTAA4",0,"SI-020957778","012A00000019mK3IAI","2016-07-07 10:25:00","005A00000073NkHIAU","2016-07-08 11:26:56","005A00000073NkHIAU","2016-07-08 11:26:56",1,0,NA,NA,999,"001A0000002qANOIA2",0,NA,NA,"2016-07-06",1,"Suggestion_vod","2016-07-11",0,NA,1,1,0,NA,NA,0,"2016-07-07",1,1,0,NA,NA,"Normal_vod","<ul><li>Follow up on recent completed Lyrica detail on 2016-07-06.  Utilize RTE and show resources available on LYRICA HCP site, Virtual Programs, PfizerPro</li><li>Lyrica FM Priority so focus on FM</li></ul>","Email_vod","AKTSUG~a5490~cp7:VVV~r1505~S~s:p1003",0,"SUGGESTED ACTION: Send LYR"
"a5lA0000002Hs1yIAC","00580000002EZNTAA4",0,"SI-026798537","012A00000019mK3IAI","2016-07-28 13:45:26","005A00000073NkHIAU","2016-07-29 12:17:57","00580000002EZNTAA4","2016-07-29 12:17:57",1,0,NA,NA,998,"001A0000002qANOIA2",0,NA,NA,"2016-07-27",1,"Suggestion_vod","2016-08-01",1,1,1,1,0,NA,NA,0,"2016-07-28",0,NA,0,NA,NA,"Normal_vod","<ul><li>Follow up on recent completed Lyrica detail on 2016-07-26.  Utilize RTE and show resources available on LYRICA HCP site, Virtual Programs, PfizerPro</li><li>Lyrica FM Priority so focus on FM</li></ul>","Email_vod","AKTSUG~a5490~cp7:VVVVV~r1505~S~s:p1003",0,"SUGGESTED ACTION: Send LYR"
"a5lA0000002Hs22IAC","00580000002EZNTAA4",0,"SI-026798541","012A00000019mK2IAI","2016-07-28 13:45:26","005A00000073NkHIAU","2016-07-29 12:17:58","00580000002EZNTAA4","2016-07-29 12:17:58",1,0,NA,NA,990,"001A0000002oPFxIAM",1,1,NA,"2016-07-27",1,"Suggestion_vod","2016-08-01",0,NA,1,1,0,NA,NA,0,"2016-07-28",0,NA,0,NA,NA,"Normal_vod","<ul><li>13d since last Visit (rep: Nancy Woodmansee), 3/9 LYRICA details made</li><li>Lyrica FM Priority so focus on FM</li></ul>","Call_vod","AKTSUG~a3357~cp7:VVV~r1505~V~1:d:p1003:mt1:m1214",0,"SUGGESTED ACTION: Detail LYR Lyrica FM August 2015 POA v1.0"
"a5lA0000002rZnyIAE","00580000002EZNTAA4",0,"SI-036437341","012A00000019mK3IAI","2016-09-02 12:13:05","005A00000073NkHIAU","2016-09-05 00:23:02","005A00000073NkHIAU","2016-09-05 00:23:02",1,0,NA,NA,999,"001A0000002qANOIA2",NA,NA,NA,"2016-09-01",1,"Suggestion_vod","2016-09-06",NA,NA,1,1,0,NA,NA,0,"2016-09-04",NA,NA,0,NA,NA,"Normal_vod","<ul><li>Follow up on recent completed Lyrica detail on 2016-08-29.  Utilize RTE and show resources available on LYRICA HCP site, Virtual Programs, PfizerPro</li><li>Lyrica FM Priority so focus on FM</li></ul>","Email_vod","AKTSUG~a5490~cp7:VVVVVVV~r1505~S~s:p1003~X42773",0,"SUGGESTED ACTION: Send LYR"
"a5lA0000003K8eDIAS","00580000002EZNTAA4",0,"SI-043408403","012A00000019mK3IAI","2016-09-29 15:26:09","005A00000073NkHIAU","2016-09-30 11:48:01","005A00000073NkHIAU","2016-09-30 11:48:02",1,0,NA,NA,999,"001A0000002qANOIA2",0,NA,NA,"2016-09-28",1,"Suggestion_vod","2016-10-03",0,NA,1,1,0,NA,NA,0,"2016-09-29",1,1,0,NA,NA,"Normal_vod","<ul><li>Follow up on recent completed Lyrica detail on 2016-09-28.  Utilize RTE and show resources available on LYRICA HCP site, Virtual Programs, PfizerPro</li></ul>","Email_vod","AKTSUG~a5490~~r1505~S~s:p1003~X42773",0,"SUGGESTED ACTION: Send LYR"
"a5lA0000003LCArIAO","00580000002EZNTAA4",0,"SI-043660073","012A00000019mK3IAI","2016-09-30 11:48:48","005A00000073NkHIAU","2016-10-01 12:49:47","005A00000073NkHIAU","2016-10-01 12:49:47",1,0,NA,NA,999,"001A0000002qANOIA2",0,NA,NA,"2016-09-29",1,"Suggestion_vod","2016-10-04",1,1,1,1,0,NA,NA,0,"2016-09-30",0,NA,0,NA,NA,"Normal_vod","<ul><li>Follow up on recent completed Lyrica detail on 2016-09-28.  Utilize RTE and show resources available on LYRICA HCP site, Virtual Programs, PfizerPro</li></ul>","Email_vod","AKTSUG~a5490~cp8:VVVVVVVVV~r1505~S~s:p1003~X42773",0,"SUGGESTED ACTION: Send LYR"
"a5lA0000005FVbZIAW","00580000002EZNTAA4",1,"SI-071797991","012A00000019mK3IAI","2017-01-18 14:12:52","005A00000073NkHIAU","2017-03-25 06:31:59","005A0000006S7gyIAC","2017-03-25 06:31:59",0,0,NA,NA,999,"001A0000002qANOIA2",0,NA,NA,"2017-01-17",1,"Suggestion_vod","2017-01-22",0,NA,1,1,0,NA,NA,0,"2017-01-19",1,1,0,NA,NA,"Normal_vod","<ul><li>Follow up on recent completed Lyrica detail on 2017-01-16.  Utilize RTE and show resources available on LYRICA HCP site, Virtual Programs, PfizerPro</li><li>Lyrica FM Priority so focus on FM</li></ul>","Email_vod","AKTSUG~a5490~cp9:VVVVVVV~r1505~S~s:p1003~TRIG:VisitFollowupEmailtrigger",0,"SUGGESTED ACTION: Send LYR"
"a5lA0000005O2K7IAK","00580000002EZNTAA4",1,"SI-073824713","012A00000019mK3IAI","2017-01-20 21:08:22","005A00000073NkHIAU","2017-03-25 07:24:05","005A0000006S7gyIAC","2017-03-25 07:24:05",0,0,NA,NA,994,"001A0000002qANOIA2",NA,NA,NA,"2017-01-19",1,"Suggestion_vod","2017-01-24",NA,NA,1,1,0,NA,NA,0,"2017-01-20",NA,NA,0,NA,NA,"Normal_vod","<ul><li>LYR - Follow up on recent completed Lyrica detail on 2017-01-16.  Utilize RTE and show resources available on LYRICA HCP site, Virtual Programs, PfizerPro.</li><li>LYR - HCP is likely a no see HCP. Consider using face to face challenge iDetail letter.</li><li>LYR - Lyrica FM Priority so focus on FM.</li></ul>","Email_vod","AKTSUG~a5490~cp9:VVVVVVV~r1505~S~s:p1003~TRIG:2VisitFollowupEmailtrigger",0,"SUGGESTED ACTION: Send  LYRICA"
"a5lA0000006tWcLIAU","005A0000000MgcGIAS",1,"SI-096075895","012A00000019mK2IAI","2017-03-04 01:00:15","005A00000073NkHIAU","2017-04-20 04:53:49","005A0000001BnSVIA0","2017-04-20 04:53:49",0,0,NA,NA,996,"001A0000002muPlIAI",NA,NA,NA,"2017-03-03",1,"Suggestion_vod","2017-03-08",NA,NA,1,1,0,NA,NA,0,"2017-03-03",NA,NA,0,NA,NA,"Normal_vod","<ul><li>High change in share point was reached.  PVC R4w TRx Share Point Change was 14.1% in Medicare.</li></ul>","Call_vod","AKTSUG~a416945~cp9:~r1605~V~1:d:p1011~TRIG:3PVCHighValueHCP-ShareChangeMedicare",0,"SUGGESTED ACTION: Detail PREMARIN VAGINAL CREAM"
"a5lA0000007MYAOIA4","00580000002EZNTAA4",1,"SI-102979825","012A00000019mK2IAI","2017-03-15 11:59:44","005A00000073NkHIAU","2017-04-19 21:07:49","005A0000001BnSVIA0","2017-04-19 21:07:50",0,0,NA,NA,997,"001A0000002oocdIAA",1,1,NA,"2017-03-23",1,"Suggestion_vod","2017-03-28",0,NA,1,1,0,NA,NA,0,"2017-03-25",0,NA,0,NA,NA,"Normal_vod","<ul><li>16d since last visit (Nancy Woodmansee), 5/12 LYRICA details made.</li><li>LYR - Lyrica FM+pDPN Both Priority but FM:DPN messaging ratio so far is weighted towards FM so focus on DPN.</li></ul>","Call_vod","AKTSUG~a174755~cp9:VVVVV~r1505~V~1:d:p1003",0,"SUGGESTED ACTION: Detail  LYRICA"
"a5lA0000007MYAPIA4","00580000002EZNTAA4",1,"SI-102979826","012A00000019mK2IAI","2017-03-15 11:59:44","005A00000073NkHIAU","2017-04-19 21:07:49","005A0000001BnSVIA0","2017-04-19 21:07:50",0,0,NA,NA,999,"001A0000002qANOIA2",1,1,NA,"2017-03-30",1,"Suggestion_vod","2017-04-04",0,NA,1,1,0,NA,NA,0,"2017-03-31",0,NA,0,NA,NA,"Normal_vod","<ul><li>23d since last visit (Nancy Woodmansee), 4/12 LYRICA details made.</li><li>LYR - Lyrica FM Priority so focus on FM.</li></ul>","Call_vod","AKTSUG~a5490~cp9:VVVV~r1505~V~1:d:p1003",0,"SUGGESTED ACTION: Detail  LYRICA"
"a5lA0000008CKNwIAO","005A0000000MgcGIAS",1,"SI-115307738","012A00000019mK2IAI","2017-04-07 10:21:22","005A00000073NkHIAU","2017-04-20 08:28:01","005A0000001BnSVIA0","2017-04-20 08:28:01",0,0,NA,NA,995,"001A0000002muPlIAI",0,NA,NA,"2017-04-10",1,"Suggestion_vod","2017-04-15",0,NA,1,1,0,NA,NA,0,"2017-04-11",1,1,0,NA,NA,"Normal_vod","<ul><li>High change in share point was reached. PVC R4w TRx Share Point Change was -12.9% in commercial.</li><li>High change in share point was reached.  PVC R4w TRx Share Point Change was -30.5% in Medicare.</li></ul>","Call_vod","AKTSUG~a416945~cp10:~r1605~V~1:d:p1011~TRIG:2PVCHighValueHCP-ShareChangeCommercial",0,"SUGGESTED ACTION: Detail PREMARIN VAGINAL CREAM"
"a5lA0000008GRbvIAG","00580000002EZNTAA4",1,"SI-116288736","012A00000019mK3IAI","2017-04-09 10:51:15","005A00000073NkHIAU","2017-04-21 11:09:58","005A0000001BnSVIA0","2017-04-21 11:09:59",0,0,NA,NA,999,"001A0000002qANOIA2",0,NA,NA,"2017-04-09",1,"Suggestion_vod","2017-04-14",0,NA,1,1,0,NA,NA,0,"2017-04-10",1,1,0,NA,NA,"Normal_vod","<ul><li>LYR - Follow up on recent completed Lyrica detail on 2017-04-06.  Utilize RTE and show resources available on LYRICA HCP site, Virtual Programs, PfizerPro.</li><li>LYR - Lyrica FM Priority so focus on FM.</li></ul>","Email_vod","AKTSUG~a5490~cp10:VVVVV~r1505~S~s:p1003~TRIG:2VisitFollowupEmailtrigger",0,"SUGGESTED ACTION: Send  LYRICA"
"a5lA0000008OJdwIAG","005A0000000MgcGIAS",1,"SI-118162253","012A00000019mK2IAI","2017-04-13 10:35:32","005A00000073NkHIAU","2017-05-11 21:34:40","005A0000007O484IAC","2017-05-11 21:34:42",0,0,NA,NA,995,"001A0000002muPlIAI",NA,NA,NA,"2017-05-02",1,"Suggestion_vod","2017-05-07",NA,NA,1,1,0,NA,NA,0,"2017-05-03",NA,NA,0,NA,NA,"Normal_vod","<ul><li>High change in share point was reached.  PVC R4w TRx Share Point Change was -28.0% in Medicare.</li></ul>","Call_vod","AKTSUG~a416945~cp10:~r1605~V~1:d:p1011~X271067~TRIG:3PVCHighValueHCP-ShareChangeMedicare",0,"SUGGESTED ACTION: Detail PREMARIN VAGINAL CREAM"
"a5lA0000008rkvzIAA","00580000002EZNTAA4",1,"SI-125616557","012A00000019mK3IAI","2017-04-27 10:09:30","005A00000073NkHIAU","2017-05-05 17:42:32","005A0000007O484IAC","2017-05-05 17:42:32",0,0,NA,NA,999,"001A0000002qANOIA2",0,NA,NA,"2017-04-26",1,"Suggestion_vod","2017-05-01",0,NA,1,1,0,NA,NA,0,"2017-04-27",1,1,0,NA,NA,"Normal_vod","<ul><li>LYR - Follow up on recent completed Lyrica detail on 2017-04-25.  Utilize RTE and show resources available on LYRICA HCP site, Virtual Programs, PfizerPro.</li><li>LYR - Lyrica FM Priority so focus on FM.</li></ul>","Email_vod","AKTSUG~a5490~cp10:VVVVVV~r1505~S~s:p1003~X267464~TRIG:2VisitFollowupEmailtrigger",0,"SUGGESTED ACTION: Send  LYRICA"
"a5lA00000098GNxIAM","005A0000000MgcGIAS",1,"SI-129549556","012A00000019mK2IAI","2017-05-04 09:13:04","005A00000073NkHIAU","2017-05-18 15:33:02","005A0000007O484IAC","2017-05-18 15:33:02",0,0,NA,NA,996,"001A0000002muPlIAI",NA,NA,NA,"2017-05-09",1,"Suggestion_vod","2017-05-14",NA,NA,1,1,0,NA,NA,0,"2017-05-10",NA,NA,0,NA,NA,"Normal_vod","<ul><li>High change in share point was reached. PVC R4w TRx Share Point Change was 12.1% in commercial.</li></ul>","Call_vod","AKTSUG~a416945~cp10:~r1605~V~1:d:p1011~X271067~TRIG:2PVCHighValueHCP-ShareChangeCommercial",0,"SUGGESTED ACTION: Detail PREMARIN VAGINAL CREAM"
"a5lA0000009mOY3IAM","00580000002EZNTAA4",1,"SI-139102097","012A00000019mK2IAI","2017-05-20 09:14:58","005A00000073NkHIAU","2017-05-31 10:05:38","005A0000007O484IAC","2017-05-31 10:05:42",0,0,NA,NA,999,"001A0000002oPFxIAM",1,1,NA,"2017-05-22",1,"Suggestion_vod","2017-05-27",0,NA,1,1,0,NA,NA,0,"2017-05-23",0,NA,0,NA,NA,"Normal_vod","<ul><li>8d since last visit (Suzanne Wentz),  2/9 LYRICA details made.</li><li>LYR - Lyrica FM Priority so focus on FM.</li></ul>","Call_vod","AKTSUG~a3357~cp10:VV~r1505~V~1:d:p1003",0,"SUGGESTED ACTION: Detail  LYRICA"
"a5lA000000A9WPsIAN","00580000002EZNTAA4",1,"SI-144610541","012A00000019mK3IAI","2017-05-31 22:35:47","005A00000073NkHIAU","2017-06-09 11:54:09","005A0000007O484IAC","2017-06-09 11:54:12",0,0,NA,NA,999,"001A0000002qANOIA2",0,NA,NA,"2017-05-31",1,"Suggestion_vod","2017-06-05",0,NA,1,1,0,NA,NA,0,"2017-06-01",1,1,0,NA,NA,"Normal_vod","<ul><li>LYR - Follow up on recent completed Lyrica detail on 2017-05-30.  Utilize RTE and show resources available on LYRICA HCP site, Virtual Programs, PfizerPro.</li><li>LYR - Lyrica FM Priority so focus on FM.</li></ul>","Email_vod","AKTSUG~a5490~cp10:VVVVVVVV~r1505~S~s:p1003~X312853~TRIG:2VisitFollowupEmailtrigger",0,"SUGGESTED ACTION: Send  LYRICA"
"a5lA000000AB1b9IAD","00580000002EZNTAA4",1,"SI-144968730","012A00000019mK2IAI","2017-06-01 09:03:53","005A00000073NkHIAU","2017-06-28 11:54:37","005A0000001BnSVIA0","2017-06-28 11:54:40",0,0,NA,NA,993,"001A0000002oPFxIAM",1,1,NA,"2017-06-14",1,"Suggestion_vod","2017-06-19",0,NA,1,1,0,NA,NA,0,"2017-06-15",0,NA,0,NA,NA,"Normal_vod","<ul><li>22d since last visit (Suzanne Wentz),  3/9 LYRICA details made.</li><li>LYR - Lyrica FM Priority so focus on FM.</li></ul>","Call_vod","AKTSUG~a3357~cp10:VVV~r1505~V~1:d:p1003",0,"SUGGESTED ACTION: Detail LYRICA"
"a5lA000000AWf14IAD","005A0000000MgcGIAS",1,"SI-150113728","012A00000019mK2IAI","2017-06-07 21:00:57","005A00000073NkHIAU","2017-06-14 16:33:16","005A0000007O484IAC","2017-06-14 16:33:24",0,0,NA,NA,995,"001A0000002muPlIAI",NA,NA,NA,"2017-06-06",1,"Suggestion_vod","2017-06-11",NA,NA,1,1,0,NA,NA,0,"2017-06-06",NA,NA,0,NA,NA,"Normal_vod","<ul><li>High change in market share point was reached.  PVC R4w TRx Market Share Point Change was -16.2% in commercial.</li><li>High change in share market point was reached.  PVC R4w TRx Market Share Point Change was 19.8% in Medicare.</li></ul>","Call_vod","AKTSUG~a416945~cp10:V~r1605~V~1:d:p1011~X271067~TRIG:2PVCHighValueHCP-ShareChangeCommercial",0,"SUGGESTED ACTION: Detail PREMARIN VAGINAL CREAM"
"a5lA000000B7HF8IAN","00580000002EZNTAA4",1,"SI-158831701","012A00000019mK2IAI","2017-06-22 08:47:51","005A00000073NkHIAU","2017-07-10 13:26:57","005A0000007O484IAC","2017-07-10 13:26:59",0,0,NA,NA,999,"001A0000002oPFxIAM",1,1,NA,"2017-06-29",1,"Suggestion_vod","2017-07-04",0,NA,1,1,0,NA,NA,0,"2017-07-02",0,NA,0,NA,NA,"Normal_vod","<ul><li>15d since last visit (Nancy Woodmansee),  5/9 LYRICA details made.</li><li>LYR - Lyrica FM Priority so focus on FM.</li></ul>","Call_vod","AKTSUG~a3357~cp10:VVVVV~r1505~V~1:d:p1003",0,"SUGGESTED ACTION: Detail LYRICA"
"a5lA000000BM2t8IAD","00580000002EZNTAA4",1,"SI-162351031","012A00000019mK3IAI","2017-06-29 09:31:03","005A00000073NkHIAU","2017-07-11 05:36:53","005A0000007O484IAC","2017-07-11 05:36:55",0,0,NA,NA,997,"001A0000002oocdIAA",0,NA,NA,"2017-06-28",1,"Suggestion_vod","2017-07-03",0,NA,1,1,0,NA,NA,0,"2017-06-29",1,1,0,NA,NA,"Normal_vod","<ul><li>LYR - Follow up on recent completed Lyrica detail on 2017-06-27 and use iDetail Letters and Paper Leave Behinds.</li><li>LYR - Lyrica FM+pDPN Both Priority but FM:DPN messaging ratio so far is weighted towards FM so focus on DPN.</li></ul>","Email_vod","AKTSUG~a174755~cp10:VVVVVVVVVV~r1505~S~s:p1003~TRIG:1VisitfollowupLTRTrigger",0,"SUGGESTED ACTION: Send LYRICA"
"a5lA000000BM2uAIAT","00580000002EZNTAA4",1,"SI-162351095","012A00000019mK3IAI","2017-06-29 09:31:10","005A00000073NkHIAU","2017-07-11 05:37:21","005A0000007O484IAC","2017-07-11 05:37:22",0,0,NA,NA,998,"001A0000002qANOIA2",0,NA,NA,"2017-06-28",1,"Suggestion_vod","2017-07-03",0,NA,1,1,0,NA,NA,0,"2017-06-29",1,1,0,NA,NA,"Normal_vod","<ul><li>LYR - Follow up on recent completed Lyrica detail on 2017-06-27.  Utilize RTE and show resources available on LYRICA HCP site, Virtual Programs, PfizerPro.</li><li>LYR - Lyrica FM Priority so focus on FM.</li></ul>","Email_vod","AKTSUG~a5490~cp10:VVVVVVVVVV~r1505~S~s:p1003~X402085~TRIG:2VisitFollowupEmailTrigger",0,"SUGGESTED ACTION: Send LYRICA"
"a5lA000000C4pqsIAB","00580000002EZNTAA4",1,"SI-172980296","012A00000019mK3IAI","2017-07-18 08:51:16","005A00000073NkHIAU","2017-07-27 07:59:17","005A0000007O484IAC","2017-07-27 07:59:17",0,0,NA,NA,998,"001A0000002oocdIAA",0,NA,NA,"2017-07-17",1,"Suggestion_vod","2017-07-22",0,NA,1,1,0,NA,NA,0,"2017-07-18",1,1,0,NA,NA,"Normal_vod","<ul><li>LYR - Follow up on recent completed Lyrica detail on 2017-07-16 and use iDetail Letters and Paper Leave Behinds.</li><li>LYR - Lyrica FM+pDPN Both Priority but FM:DPN messaging ratio so far is weighted towards FM so focus on DPN.</li></ul>","Email_vod","AKTSUG~a174755~cp11:VVV~r1505~S~s:p1003~TRIG:1VisitfollowupLTRTrigger",0,"SUGGESTED ACTION: Send LYRICA"
"a5lA000000C9jWlIAJ","00580000002EZNTAA4",1,"SI-174147460","012A00000019mK3IAI","2017-07-20 08:57:32","005A00000073NkHIAU","2017-07-28 21:27:53","005A0000007O484IAC","2017-07-28 21:27:54",0,0,NA,NA,996,"001A0000002oocdIAA",0,NA,NA,"2017-07-19",1,"Suggestion_vod","2017-07-24",0,NA,1,1,0,NA,NA,0,"2017-07-20",1,1,0,NA,NA,"Normal_vod","<ul><li>LYR - Follow up on recent completed Lyrica detail on 2017-07-17 and use iDetail Letters and Paper Leave Behinds.</li><li>LYR - Lyrica FM+pDPN Both Priority but FM:DPN messaging ratio so far is weighted towards FM so focus on DPN.</li></ul>","Email_vod","AKTSUG~a174755~cp11:VVV~r1505~S~s:p1003~X518182~TRIG:1VisitfollowupLTRTrigger",0,"SUGGESTED ACTION: Send LYRICA"
"a5lA000000CEsSjIAL","00580000002EZNTAA4",1,"SI-175366136","012A00000019mK3IAI","2017-07-22 08:57:29","005A00000073NkHIAU","2017-08-01 21:39:14","005A0000007O484IAC","2017-08-01 21:39:15",0,0,NA,NA,996,"001A0000002oocdIAA",NA,NA,NA,"2017-07-21",1,"Suggestion_vod","2017-07-26",NA,NA,1,1,0,NA,NA,0,"2017-07-22",NA,NA,0,NA,NA,"Normal_vod","<ul><li>LYR - Follow up on recent completed Lyrica detail on 2017-07-17 and use iDetail Letters and Paper Leave Behinds.</li><li>LYR - Lyrica FM+pDPN Both Priority but FM:DPN messaging ratio so far is weighted towards FM so focus on DPN.</li></ul>","Email_vod","AKTSUG~a174755~cp11:VVV~r1505~S~s:p1003~X524138~TRIG:1VisitfollowupLTRTrigger",0,"SUGGESTED ACTION: Send LYRICA"
"a5lA000000CGtNVIA1","005A0000000MgcGIAS",1,"SI-175846217","012A00000019mK2IAI","2017-07-23 08:32:41","005A00000073NkHIAU","2017-08-02 00:04:49","005A0000007O484IAC","2017-08-02 00:04:50",0,0,NA,NA,996,"001A0000002muPlIAI",NA,NA,NA,"2017-07-22",1,"Suggestion_vod","2017-07-27",NA,NA,1,1,0,NA,NA,0,"2017-07-23",NA,NA,0,NA,NA,"Normal_vod","<ul><li>High change in market share point was reached.  PVC R4w TRx Market Share Point Change was 11.7% in commercial.</li></ul>","Call_vod","AKTSUG~a416945~cp11:~r1605~V~1:d:p1011~TRIG:2PVCHighValueHCP-ShareChangeCommercial",0,"SUGGESTED ACTION: Detail PREMARIN VAGINAL CREAM"
"a5lA000000E5MtfIAF","005A0000000MgcGIAS",1,"SI-202529783","012A00000019mK2IAI","2017-09-07 08:24:40","005A00000073NkHIAU","2017-09-19 10:18:18","005A0000006yrtqIAA","2017-09-19 10:18:20",0,0,NA,NA,997,"001A0000002muPlIAI",NA,NA,NA,"2017-09-07",1,"Suggestion_vod","2017-09-12",NA,NA,1,1,0,NA,NA,0,"2017-09-08",NA,NA,0,NA,NA,"Normal_vod","<ul><li>High change in market share point was reached.  PVC R4w TRx Market Share Point Change was -15.7% in commercial.</li></ul>","Call_vod","AKTSUG~a416945~cp11:~r1605~V~1:d:p1011~TRIG:2PVCHighValueHCP-ShareChangeCommercial",0,"SUGGESTED ACTION: Detail PREMARIN VAGINAL CREAM"
"a5lA000000EptdwIAB","005A0000000MgcGIAS",1,"SI-213577628","012A00000019mK2IAI","2017-09-22 09:03:47","005A00000073NkHIAU","2017-10-04 22:10:10","005A0000006yrtqIAA","2017-10-04 22:10:10",0,0,NA,NA,995,"001A0000002muPlIAI",NA,NA,NA,"2017-09-21",1,"Suggestion_vod","2017-09-26",NA,NA,1,1,0,NA,NA,0,"2017-09-22",NA,NA,0,NA,NA,"Normal_vod","<ul><li>High change in share market point was reached.  PVC R4w TRx Market Share Point Change was -11.9% in Medicare.</li></ul>","Call_vod","AKTSUG~a416945~cp11:~r1605~V~1:d:p1011~TRIG:3PVCHighValueHCP-ShareChangeMedicare",0,"SUGGESTED ACTION: Detail PREMARIN VAGINAL CREAM"
"a5lA000000F1OrNIAV","00580000002EZNTAA4",1,"SI-216313412","012A00000019mK2IAI","2017-09-27 08:59:02","005A00000073NkHIAU","2017-10-10 19:02:20","005A0000006yrtqIAA","2017-10-10 19:02:23",0,0,NA,NA,990,"001A0000002oocdIAA",1,1,NA,"2017-09-28",1,"Suggestion_vod","2017-10-03",0,NA,1,1,0,NA,NA,0,"2017-09-30",0,NA,0,NA,NA,"Normal_vod","<ul><li>9d since last visit (Nancy Woodmansee),  6/12 LYRICA, 3/6 VIAGRA details made.</li><li>LYR: ""BOTH"" PRIORITY TARGET: Detail FM because messaging ratio is weighted towards DPN.<span class=""meta-data"" data-type=""insight"" data-products=""LYRICA"" data-is-highlighted-insight=""false""></span></li></ul>","Call_vod","AKTSUG~a174755~cp11:VSVVVSVSV~r1505~V~1:d:p1003~2:d:p1006~X524138",0,"SUGGESTED ACTION: Detail LYRICA, VIAGRA"
"a5lA000000F1Q1rIAF","00580000002EZNTAA4",1,"SI-216317710","012A00000019mK2IAI","2017-09-27 08:59:08","005A00000073NkHIAU","2017-10-10 19:05:19","005A0000006yrtqIAA","2017-10-10 19:05:22",0,0,NA,NA,995,"001A0000002qANOIA2",1,1,NA,"2017-09-28",1,"Suggestion_vod","2017-10-03",0,NA,1,1,0,NA,NA,0,"2017-09-30",0,NA,0,NA,NA,"Normal_vod","<ul><li>9d since last visit (Nancy Woodmansee),  0/3 EUCRISA, 6/12 LYRICA, 0/3 VIAGRA details made.</li><li>LYR: FM PRIORITY TARGET: Detail FM.<span class=""meta-data"" data-type=""insight"" data-products=""LYRICA"" data-is-highlighted-insight=""false""></span></li></ul>","Call_vod","AKTSUG~a5490~cp11:VSVSVVSSVSV~r1505~V~1:d:p1003~2:d:p1006~3:d:p1014",0,"SUGGESTED ACTION: Detail  EUCRISA, LYRICA, VIAGRA"
