"eventTypeId","eventTypeName","externalId","eventCategory","productIdRule","messageTopicIdRule","messageIdRule","repIdRule","notes","createdAt","updatedAt"
1022,"RTE_OPEN","RTE_OPEN","SEND-OPEN",1,NA,NA,NA,NA,"2015-10-22 21:48:53","2015-10-23 20:21:00"
1023,"RTE_CLICK","RTE_CLICK","SEND-CLICK",1,NA,NA,NA,NA,"2015-10-22 21:49:21","2015-10-23 20:21:07"
1031,"VISIT-DISMISS-NOTAVAILABLE","VISIT-DISMISS-NOTAVAILABLE","DISMISS-EVENT",1,NA,NA,NA,NA,"2016-03-25 21:47:25","2016-03-25 21:47:25"
1033,"SEND-DISMISS-NOTRELEVANT","SEND-DISMISS-NOTRELEVANT","DISMISS-EVENT",1,NA,NA,NA,NA,"2016-03-25 21:47:25","2016-03-25 21:47:25"
1034,"VISIT-DISMISS-ACCESSLIMITED","VISIT-DISMISS-ACCESSLIMITED","DISMISS-EVENT",1,NA,NA,NA,NA,"2016-03-25 21:47:25","2016-03-25 21:47:25"
1035,"VISIT-DISMISS-NOSEE","VISIT-DISMISS-NOSEE","DISMISS-EVENT",1,NA,NA,NA,NA,"2016-03-25 21:47:25","2016-03-25 21:47:25"
1036,"VISIT-DISMISS","VISIT-DISMISS","DISMISS-EVENT",1,NA,NA,NA,NA,"2016-03-25 21:47:25","2016-03-25 21:47:25"
1038,"VISIT-DISMISS-ANY","VISIT-DISMISS-ANY","DISMISS-EVENT",1,NA,NA,NA,NA,"2016-03-25 21:47:25","2016-03-25 21:47:25"
1053,"VISIT-MARKCOMPLETED","VISIT-MARKCOMPLETED","MARCOMPLETE-EVENT",1,NA,NA,NA,NA,"2016-03-25 21:51:52","2016-03-25 21:51:52"
1055,"ANY-MARKCOMPLETED","ANY-MARKCOMPLETED","MARCOMPLETE-EVENT",1,NA,NA,NA,NA,"2016-03-25 21:51:52","2016-03-25 21:51:52"
1058,"SEND-COMPLETED-E_CC_EFF","SEND-COMPLETED-E_CC_EFF","SEND-COMPLETED-TOPIC",1,NA,NA,NA,NA,"2016-04-24 04:34:34","2016-04-24 04:34:34"
1059,"SEND-COMPLETED-E_CC_FM","SEND-COMPLETED-E_CC_FM","SEND-COMPLETED-TOPIC",1,NA,NA,NA,NA,"2016-04-24 04:36:23","2016-04-24 04:36:23"
1060,"SEND-COMPLETED-E_DOSING","SEND-COMPLETED-E_DOSING","SEND-COMPLETED-TOPIC",1,NA,NA,NA,NA,"2016-04-24 04:36:38","2016-04-24 04:36:38"
1061,"SEND-COMPLETED-E_EFF","SEND-COMPLETED-E_EFF","SEND-COMPLETED-TOPIC",1,NA,NA,NA,NA,"2016-04-24 04:36:49","2016-04-24 04:36:49"
1062,"SEND-COMPLETED-L_CC","SEND-COMPLETED-L_CC","SEND-COMPLETED-TOPIC",1,NA,NA,NA,NA,"2016-04-24 04:37:02","2016-04-24 04:37:02"
1063,"SEND-COMPLETED-L_DOSING","SEND-COMPLETED-L_DOSING","SEND-COMPLETED-TOPIC",1,NA,NA,NA,NA,"2016-04-24 04:37:16","2016-04-24 04:37:16"
1064,"SEND-COMPLETED-L_EFF","SEND-COMPLETED-L_EFF","SEND-COMPLETED-TOPIC",1,NA,NA,NA,NA,"2016-04-24 04:37:28","2016-04-24 04:37:28"
1065,"SEND-COMPLETED-L_FM","SEND-COMPLETED-L_FM","SEND-COMPLETED-TOPIC",1,NA,NA,NA,NA,"2016-04-24 04:37:39","2016-04-24 04:37:39"
1066,"SAMPLE-EVENT-RECEIVED","SAMPLE-EVENT-RECEIVED","SAMPLE-EVENT-RECEIVED",1,NA,NA,NA,NA,"2016-04-24 15:32:50","2016-04-24 15:32:50"
1070,"PAYER-WIN","PAYER-WIN","PAYER-WIN",1,NA,NA,NA,NA,"2016-08-12 17:41:58","2016-08-12 17:41:58"
1071,"SLIDE-FM-SUSTAINED-PAINRELIEF","SLIDE-FM-SUSTAINED-PAINRELIEF","SLIDE-FM-SUSTAINED-PAINRELIEF",1,NA,NA,NA,NA,"2016-11-18 16:35:34","2016-11-18 16:35:34"
1072,"SLIDE-FM-POWERFUL-RELIEF","SLIDE-FM-POWERFUL-RELIEF","SLIDE-FM-POWERFUL-RELIEF",1,NA,NA,NA,NA,"2016-11-18 16:35:34","2016-11-18 16:35:34"
1073,"SLIDE-DPN-SHIFT-DATA","SLIDE-DPN-SHIFT-DATA","SLIDE-DPN-SHIFT-DATA",1,NA,NA,NA,NA,"2017-02-09 18:26:47","2017-02-09 18:26:47"
1074,"SLIDE-DPN-PAIN","SLIDE-DPN-PAIN","SLIDE-DPN-PAIN",1,NA,NA,NA,NA,"2017-02-09 18:27:04","2017-02-09 18:27:04"
1075,"SLIDE-DPN-RAPID","SLIDE-DPN-RAPID","SLIDE-DPN-RAPID",1,NA,NA,NA,NA,"2017-02-09 18:27:23","2017-02-09 18:27:23"
1076,"VISIT-DISMISS-NOTRELEVANT","VISIT-DISMISS-NOTRELEVANT",NA,1,NA,NA,NA,NA,"2017-04-07 04:52:03","2017-04-07 04:52:03"
1078,"SLIDE-DPN-PAIN-CUT-IN-HALF","SLIDE-DPN-PAIN-CUT-IN-HALF","SLIDE-DPN-PAIN-CUT-IN-HALF",1,NA,NA,NA,"","2017-09-15 17:57:00","2017-09-15 17:57:00"
