"interactionTypeId","interactionTypeName","createdAt","updatedAt"
1,"REP_VISIT","2015-10-29 01:37:00","2015-10-29 01:37:00"
4,"VISIT","2015-10-29 01:37:00","2015-10-29 01:37:00"
11,"SEND_ANY","2015-10-29 01:37:01","2015-10-29 01:37:01"
