"messageAlgorithmId","messageAlgorithmName","messageAlgorithmDescription","productId","repActionChannelId","messageAlgorithmType","externalId","isActive","isDeleted","createdAt","updatedAt"
"23","MSO Chantix (Send)","unit-test-chantix-config",1001,1,1,"00bad2df-bd27-48da-a37c-0e3b41e949e1","1","0","2017-10-24 22:26:14","2018-02-07 17:57:39"
"27","MSO Lyrica (Send)","Message Sequence Optimization model for Lyrica (Sends), using multiple predictors",1003,1,1,"pfizerus_2017_11_02_14_05_44","0","1","2017-10-25 18:12:21","2018-02-07 17:57:40"
"25","MSO Lyrica (Send)","unit-test-chantix-config-copy",1003,1,1,"unit-test-mso-build-copy-configUID","1","0","2017-11-02 04:22:37","2018-02-07 17:57:41"
