
{
    "type": "object",
    "properties": {
        "json-output-2": {
            "type": "object",
            "properties": {
                "unnamed": {
                    "type": "object",
                    "properties": {
                    }
                }
            },
            "description": "",
            "example": {
                "unnamed": {
                }
            }
        }
    }
}