"repId","accountId","startDate","endDate","createdAt","updatedAt"
1505,3357,"2015-01-01","2100-12-31","2017-05-02 22:04:18","2017-05-02 22:04:18"
1505,5490,"2015-01-01","2100-12-31","2016-08-27 15:02:19","2016-08-27 15:02:19"
1505,174755,"2015-01-01","2100-12-31","2016-08-27 14:59:12","2016-08-27 14:59:12"
1605,416945,"2015-01-01","2100-12-31","2017-02-16 00:02:27","2017-02-16 00:02:27"
1605,423705,"2015-01-01","2100-12-31","2017-02-16 00:09:25","2017-02-16 00:09:25"
