
{
    "type": "object",
    "properties": {
        "string-input-17": {
            "type": "string",
            "default": "ENT_037_Model",
            "description": "",
            "example": "ENT_037_Model"
        },
        "json-input-1": {
            "type": "object",
            "properties": {
            },
            "description": "",
            "example": {
            }
        },
        "string-input-0:3": {
            "type": "string",
            "default": "knime://knime.mountpoint/SCD_Model_Factory/tmp",
            "description": "Enter Description",
            "example": "knime://knime.mountpoint/SCD_Model_Factory/tmp"
        },
        "string-input-19": {
            "type": "string",
            "default": ".table",
            "description": "Enter Description",
            "example": ".table"
        }
    }
}