
{
    "type": "object",
    "properties": {
        "json-input-1": {
            "type": "object",
            "properties": {
                "Process_Name": {
                    "type": "string",
                    "default": "ENT_035"
                },
                "Model_Name": {
                    "type": "string",
                    "default": "ENT_035"
                },
                "Metric": {
                    "type": "string",
                    "default": "None"
                },
                "Update_Type": {
                    "type": "string",
                    "default": "Automatic"
                },
                "Threshold": {
                    "type": "number",
                    "default": 0.0
                },
                "Model_Initialisation": {
                    "type": "string",
                    "default": "missing"
                },
                "Responsible": {
                    "type": "string",
                    "default": "clay.guo@aktana.com"
                },
                "Last_Execution": {
                    "type": "string",
                    "default": "missing"
                }
            },
            "description": "",
            "example": {
                "Process_Name": "ENT_035",
                "Model_Name": "ENT_035",
                "Metric": "None",
                "Update_Type": "Automatic",
                "Threshold": 0.0,
                "Model_Initialisation": "missing",
                "Responsible": "clay.guo@aktana.com",
                "Last_Execution": "missing"
            }
        }
    }
}