externalId, suggestionLifeCycleId, runId, runUID, repTeamId, repTeamUID, repTeamName, seConfigId, seConfigName, runGroupId, suggestedDate, startDateLocal, repId, repUID, repName, repCreatedAt, accountId, accountUID, runRepDateSuggestionId, accountName, detailRepActionTypeId, detailRepActionTypeUID, detailRepActionName, runRepDateSuggestionDetailId, productId, productUID, productName, messageId, messageUID, messageName, suggestionUID, suggestionReferenceId, lastViewedAt, viewedAt, viewedDuration, actionTaken, actionTaken_dt, isSuggestionCompleted, isSuggestionCompletedDirect, isSuggestionCompletedInfer, isSuggestionDismissed, dismissReasonType, dismissReason, dismissReason_dt, isSuggestionActive, facilityLatitude, facilityLongitude, facilityGeoLocationString, repLatitude, repLongitude, territoryCityName, districtName, territoryId, territoryName, regionName, regionGroup, dismissedAt, dismissCount, lastPublishedAt, createdAt, updatedAt, reportedInteractionUID, inferredInteractionUID, interactionUID, completedAt, inferredAt, isFirstSuggestedDate, isLastSuggestedDate, suggestionDriver, timeoffday, isHighestRunidForDay, holiday_weekend_Flag, crmFieldName, reasonText, reasonRank, runRepDateSuggestionReasonId, repRole, repBag, dmUID, dmName, interactionId, isCompleted, startDateTime, isREMix, isDSESpark, arc_createdAt, arc_updatedAt
aa,,3,3,,,,1,a,,2018-02-01,2018-01-15,1009,i,Rep9,,,,,,3,,,,,,,,,,,aa1,,,,Suggestions Completed,,,,,,,,,,,,,,,,,,,,,,,,2018-02-15T12:00:00.000-08:00,2018-02-15T12:00:00.000-08:00,,,,,,,,Target,,,,,,,,,,,,,1,2018-01-15T12:00:00.000-08:00,,,2019-01-01T12:00:01.000-08:00,2019-01-01T12:00:01.000-08:00
ab,,1,1,,,,1,a,,2018-02-01,2018-01-15,1010,j,Rep10,,,,,,3,,,,,,,,,,,ab1,,,,Suggestions Completed,,,,,,,,,,,,,,,,,,,,,,,,2018-02-15T12:00:00.000-08:00,2018-02-15T12:00:00.000-08:00,,,,,,,,Trigger,,,,,,,,,,,,,1,2018-01-15T12:00:00.000-08:00,,,2019-01-01T12:00:01.000-08:00,2019-01-01T12:00:01.000-08:00
ac,,2,2,,,,1,a,,2018-02-02,2018-01-15,1010,j,Rep10,,,,,,3,,,,,,,,,,,ac1,,,,Suggestions Completed,,,,,,,,,,,,,,,,,,,,,,,,2018-02-15T12:00:00.000-08:00,2018-02-15T12:00:00.000-08:00,,,,,,,,Target,,,,,,,,,,,,,1,2018-01-15T12:00:00.000-08:00,,,2019-01-01T12:00:01.000-08:00,2019-01-01T12:00:01.000-08:00
ad,,3,3,,,,1,a,,2018-02-03,2018-01-15,1010,j,Rep10,,,,,,3,,,,,,,,,,,ad1,,,,Suggestions Completed,,,,,,,,,,,,,,,,,,,,,,,,2018-02-15T12:00:00.000-08:00,2018-02-15T12:00:00.000-08:00,,,,,,,,Trigger,,,,,,,,,,,,,1,2018-01-15T12:00:00.000-08:00,,,2019-01-01T12:00:01.000-08:00,2019-01-01T12:00:01.000-08:00
ae,,1,1,,,,1,a,,2018-02-01,2018-01-15,1001,a,Rep1,,,,,,3,,,,,,,,,,,ae,,,,No Action Taken,,,,,,,,,,,,,,,,,,,,,,,,2018-02-15T12:00:00.000-08:00,2018-02-15T12:00:00.000-08:00,,,,,,,,Target,,,,,,,,,,,,,0,2018-01-15T12:00:00.000-08:00,,,2019-01-01T12:00:01.000-08:00,2019-01-01T12:00:01.000-08:00
af,,2,2,,,,1,a,,2018-02-02,2018-01-15,1001,a,Rep1,,,,,,3,,,,,,,,,,,af1,,,,Suggestions Dismissed,,,,,,,,,,,,,,,,,,,,,,,,2018-02-15T12:00:00.000-08:00,2018-02-15T12:00:00.000-08:00,,,,,,,,Trigger,,,,,,,,,,,,,0,2018-01-15T12:00:00.000-08:00,,,2019-01-01T12:00:01.000-08:00,2019-01-01T12:00:01.000-08:00
ag,,3,3,,,,1,a,,2018-02-03,2018-01-15,1001,a,Rep1,,,,,,3,,,,,,,,,,,ag1,,,,No Action Taken,,,,,,,,,,,,,,,,,,,,,,,,2018-02-15T12:00:00.000-08:00,2018-02-15T12:00:00.000-08:00,,,,,,,,Target,,,,,,,,,,,,,0,2018-01-15T12:00:00.000-08:00,,,2019-01-01T12:00:01.000-08:00,2019-01-01T12:00:01.000-08:00
ah,,1,1,,,,1,a,,2018-02-01,2018-01-15,1002,b,Rep2,,,,,,3,,,,,,,,,,,ah1,,,,Suggestions Dismissed,,,,,,,,,,,,,,,,,,,,,,,,2018-02-15T12:00:00.000-08:00,2018-02-15T12:00:00.000-08:00,,,,,,,,Trigger,,,,,,,,,,,,,0,2018-01-15T12:00:00.000-08:00,,,2019-01-01T12:00:01.000-08:00,2019-01-01T12:00:01.000-08:00
ai,,2,2,,,,1,a,,2018-02-02,2018-01-15,1002,b,Rep2,,,,,,3,,,,,,,,,,,ai1,,,,No Action Taken,,,,,,,,,,,,,,,,,,,,,,,,2018-02-15T12:00:00.000-08:00,2018-02-15T12:00:00.000-08:00,,,,,,,,Target,,,,,,,,,,,,,0,2018-01-15T12:00:00.000-08:00,,,2019-01-01T12:00:01.000-08:00,2019-01-01T12:00:01.000-08:00
aj,,3,3,,,,1,a,,2018-02-03,2018-01-15,1002,b,Rep2,,,,,,3,,,,,,,,,,,aj1,,,,Suggestions Dismissed,,,,,,,,,,,,,,,,,,,,,,,,2018-02-15T12:00:00.000-08:00,2018-02-15T12:00:00.000-08:00,,,,,,,,Trigger,,,,,,,,,,,,,0,2018-01-15T12:00:00.000-08:00,,,2019-01-01T12:00:01.000-08:00,2019-01-01T12:00:01.000-08:00
ak,,1,1,,,,1,a,,2018-02-01,2018-01-15,1003,c,Rep3,,,,,,3,,,,,,,,,,,ak1,,,,No Action Taken,,,,,,,,,,,,,,,,,,,,,,,,2018-02-15T12:00:00.000-08:00,2018-02-15T12:00:00.000-08:00,,,,,,,,Target,,,,,,,,,,,,,0,2018-01-15T12:00:00.000-08:00,,,2019-01-01T12:00:01.000-08:00,2019-01-01T12:00:01.000-08:00
al,,2,2,,,,1,a,,2018-02-02,2018-01-15,1003,c,Rep3,,,,,,3,,,,,,,,,,,al1,,,,Suggestions Dismissed,,,,,,,,,,,,,,,,,,,,,,,,2018-02-15T12:00:00.000-08:00,2018-02-15T12:00:00.000-08:00,,,,,,,,Trigger,,,,,,,,,,,,,0,2018-01-15T12:00:00.000-08:00,,,2019-01-01T12:00:01.000-08:00,2019-01-01T12:00:01.000-08:00
am,,3,3,,,,1,a,,2018-02-03,2018-01-15,1003,c,Rep3,,,,,,3,,,,,,,,,,,am1,,,,No Action Taken,,,,,,,,,,,,,,,,,,,,,,,,2018-02-15T12:00:00.000-08:00,2018-02-15T12:00:00.000-08:00,,,,,,,,Target,,,,,,,,,,,,,0,2018-01-15T12:00:00.000-08:00,,,2019-01-01T12:00:01.000-08:00,2019-01-01T12:00:01.000-08:00
an,,2,2,,,,1,a,,2018-02-01,2018-01-15,1004,d,Rep4,,,,,,3,,,,,,,,,,,an1,,,,Suggestions Dismissed,,,,,,,,,,,,,,,,,,,,,,,,2018-02-15T12:00:00.000-08:00,2018-02-15T12:00:00.000-08:00,,,,,,,,Trigger,,,,,,,,,,,,,0,2018-01-15T12:00:00.000-08:00,,,2019-01-01T12:00:01.000-08:00,2019-01-01T12:00:01.000-08:00
ao,,3,3,,,,1,a,,2018-02-02,2018-01-15,1004,d,Rep4,,,,,,3,,,,,,,,,,,ao1,,,,No Action Taken,,,,,,,,,,,,,,,,,,,,,,,,2018-02-15T12:00:00.000-08:00,2018-02-15T12:00:00.000-08:00,,,,,,,,Target,,,,,,,,,,,,,0,2018-01-15T12:00:00.000-08:00,,,2019-01-01T12:00:01.000-08:00,2019-01-01T12:00:01.000-08:00
ap,,2,2,,,,1,a,,2018-02-01,2018-01-15,1005,e,Rep5,,,,,,3,,,,,,,,,,,ap1,,,,Suggestions Dismissed,,,,,,,,,,,,,,,,,,,,,,,,2018-02-15T12:00:00.000-08:00,2018-02-15T12:00:00.000-08:00,,,,,,,,Target,,,,,,,,,,,,,0,2018-01-15T12:00:00.000-08:00,,,2019-01-01T12:00:01.000-08:00,2019-01-01T12:00:01.000-08:00
aq,,3,3,,,,1,a,,2018-02-02,2018-01-15,1005,e,Rep5,,,,,,3,,,,,,,,,,,aq1,,,,No Action Taken,,,,,,,,,,,,,,,,,,,,,,,,2018-02-15T12:00:00.000-08:00,2018-02-15T12:00:00.000-08:00,,,,,,,,Trigger,,,,,,,,,,,,,0,2018-01-15T12:00:00.000-08:00,,,2019-01-01T12:00:01.000-08:00,2019-01-01T12:00:01.000-08:00
ar,,3,3,,,,1,a,,2018-02-01,2018-01-15,1006,f,Rep6,,,,,,3,,,,,,,,,,,ar1,,,,Suggestions Dismissed,,,,,,,,,,,,,,,,,,,,,,,,2018-02-15T12:00:00.000-08:00,2018-02-15T12:00:00.000-08:00,,,,,,,,Trigger,,,,,,,,,,,,,0,2018-01-15T12:00:00.000-08:00,,,2019-01-01T12:00:01.000-08:00,2019-01-01T12:00:01.000-08:00
as,,3,3,,,,1,a,,2018-02-01,2018-01-15,1007,g,Rep7,,,,,,3,,,,,,,,,,,as1,,,,No Action Taken,,,,,,,,,,,,,,,,,,,,,,,,2018-02-15T12:00:00.000-08:00,2018-02-15T12:00:00.000-08:00,,,,,,,,Target,,,,,,,,,,,,,0,2018-01-15T12:00:00.000-08:00,,,2019-01-01T12:00:01.000-08:00,2019-01-01T12:00:01.000-08:00
l,,1,1,,,,1,a,,2018-02-03,2018-01-15,1004,d,Rep4,,,,,,3,,,,,,,,,,,l1,,,,Suggestions Completed,,,,,,,,,,,,,,,,,,,,,,,,2018-02-15T12:00:00.000-08:00,2018-02-15T12:00:00.000-08:00,,,,,,,,Trigger,,,,,,,,,,,,,1,2018-01-15T12:00:00.000-08:00,,,2019-01-01T12:00:01.000-08:00,2019-01-01T12:00:01.000-08:00
o,,1,1,,,,1,a,,2018-02-03,2018-01-15,1005,e,Rep5,,,,,,3,,,,,,,,,,,o1,,,,Suggestions Completed,,,,,,,,,,,,,,,,,,,,,,,,2018-02-15T12:00:00.000-08:00,2018-02-15T12:00:00.000-08:00,,,,,,,,Target,,,,,,,,,,,,,1,2018-01-15T12:00:00.000-08:00,,,2019-01-01T12:00:01.000-08:00,2019-01-01T12:00:01.000-08:00
q,,1,1,,,,1,a,,2018-02-02,2018-01-15,1006,f,Rep6,,,,,,3,,,,,,,,,,,q1,,,,Suggestions Completed,,,,,,,,,,,,,,,,,,,,,,,,2018-02-15T12:00:00.000-08:00,2018-02-15T12:00:00.000-08:00,,,,,,,,Target,,,,,,,,,,,,,1,2018-01-15T12:00:00.000-08:00,,,2019-01-01T12:00:01.000-08:00,2019-01-01T12:00:01.000-08:00
r,,2,2,,,,1,a,,2018-02-03,2018-01-15,1006,f,Rep6,,,,,,3,,,,,,,,,,,r1,,,,Suggestions Completed,,,,,,,,,,,,,,,,,,,,,,,,2018-02-15T12:00:00.000-08:00,2018-02-15T12:00:00.000-08:00,,,,,,,,Trigger,,,,,,,,,,,,,1,2018-01-15T12:00:00.000-08:00,,,2019-01-01T12:00:01.000-08:00,2019-01-01T12:00:01.000-08:00
t,,1,1,,,,1,a,,2018-02-02,2018-01-15,1007,g,Rep7,,,,,,3,,,,,,,,,,,t1,,,,Suggestions Completed,,,,,,,,,,,,,,,,,,,,,,,,2018-02-15T12:00:00.000-08:00,2018-02-15T12:00:00.000-08:00,,,,,,,,Trigger,,,,,,,,,,,,,1,2018-01-15T12:00:00.000-08:00,,,2019-01-01T12:00:01.000-08:00,2019-01-01T12:00:01.000-08:00
u,,2,2,,,,1,a,,2018-02-03,2018-01-15,1007,g,Rep7,,,,,,3,,,,,,,,,,,u1,,,,Suggestions Completed,,,,,,,,,,,,,,,,,,,,,,,,2018-02-15T12:00:00.000-08:00,2018-02-15T12:00:00.000-08:00,,,,,,,,Target,,,,,,,,,,,,,1,2018-01-15T12:00:00.000-08:00,,,2019-01-01T12:00:01.000-08:00,2019-01-01T12:00:01.000-08:00
v,,1,1,,,,1,a,,2018-02-01,2018-01-15,1008,h,Rep8,,,,,,3,,,,,,,,,,,v1,,,,Suggestions Completed,,,,,,,,,,,,,,,,,,,,,,,,2018-02-15T12:00:00.000-08:00,2018-02-15T12:00:00.000-08:00,,,,,,,,Trigger,,,,,,,,,,,,,1,2018-01-15T12:00:00.000-08:00,,,2019-01-01T12:00:01.000-08:00,2019-01-01T12:00:01.000-08:00
w,,2,2,,,,1,a,,2018-02-02,2018-01-15,1008,h,Rep8,,,,,,3,,,,,,,,,,,w1,,,,Suggestions Completed,,,,,,,,,,,,,,,,,,,,,,,,2018-02-15T12:00:00.000-08:00,2018-02-15T12:00:00.000-08:00,,,,,,,,Target,,,,,,,,,,,,,1,2018-01-15T12:00:00.000-08:00,,,2019-01-01T12:00:01.000-08:00,2019-01-01T12:00:01.000-08:00
x,,3,3,,,,1,a,,2018-02-03,2018-01-15,1008,h,Rep8,,,,,,3,,,,,,,,,,,x1,,,,Suggestions Completed,,,,,,,,,,,,,,,,,,,,,,,,2018-02-15T12:00:00.000-08:00,2018-02-15T12:00:00.000-08:00,,,,,,,,Trigger,,,,,,,,,,,,,1,2018-01-15T12:00:00.000-08:00,,,2019-01-01T12:00:01.000-08:00,2019-01-01T12:00:01.000-08:00
y,,1,1,,,,1,a,,2018-02-02,2018-01-15,1009,i,Rep9,,,,,,3,,,,,,,,,,,y1,,,,Suggestions Completed,,,,,,,,,,,,,,,,,,,,,,,,2018-02-15T12:00:00.000-08:00,2018-02-15T12:00:00.000-08:00,,,,,,,,Trigger,,,,,,,,,,,,,1,2018-01-15T12:00:00.000-08:00,,,2019-01-01T12:00:01.000-08:00,2019-01-01T12:00:01.000-08:00
z,,2,2,,,,1,a,,2018-02-03,2018-01-15,1009,i,Rep9,,,,,,3,,,,,,,,,,,z1,,,,Suggestions Completed,,,,,,,,,,,,,,,,,,,,,,,,2018-02-15T12:00:00.000-08:00,2018-02-15T12:00:00.000-08:00,,,,,,,,Target,,,,,,,,,,,,,1,2018-01-15T12:00:00.000-08:00,,,2019-01-01T12:00:01.000-08:00,2019-01-01T12:00:01.000-08:00
