
{
    "type": "object",
    "properties": {
        "json-input-1": {
            "type": "object",
            "properties": {
                "modelPath": {
                    "type": "string",
                    "default": " "
                }
            },
            "description": "",
            "example": {
                "modelPath": " "
            }
        },
        "string-input-0:3": {
            "type": "string",
            "default": "knime://knime.mountpoint/SCD_Model_Factory/tmp",
            "description": "Enter Description",
            "example": "knime://knime.mountpoint/SCD_Model_Factory/tmp"
        },
        "string-input-15": {
            "type": "string",
            "default": "ENT_037_Score",
            "description": "",
            "example": "ENT_037_Score"
        }
    }
}