
{
    "type": "object",
    "properties": {
        "json-input-1": {
            "type": "object",
            "properties": {
                "filePath": {
                    "type": "string",
                    "default": "knime://LOCAL/SCD_Model_Factory/tmp/ENT_038_Score_2020-06-23T17-13-23.755.table"
                }
            },
            "description": "",
            "example": {
                "filePath": "knime://LOCAL/SCD_Model_Factory/tmp/ENT_038_Score_2020-06-23T17-13-23.755.table"
            }
        }
    }
}