
{
    "type": "object",
    "properties": {
        "json-output-2": {
            "type": "object",
            "properties": {
                "value": {
                    "type": "number",
                    "default": 0.11
                }
            },
            "description": "",
            "example": {
                "value": 0.11
            }
        }
    }
}